simulation/qsim/MU0CPUFINAL.msim.vcd
$comment
	File created using the following command:
		vcd file MU0CPUFINAL.msim.vcd -direction
$end
$date
	Mon Feb 24 16:47:45 2020
$end
$version
	ModelSim Version 10.5b
$end
$timescale
	1ps
$end

$scope module MU0CPU_vlg_vec_tst $end
$var reg 1 ! CLK $end
$var wire 1 " acc_out [15] $end
$var wire 1 # acc_out [14] $end
$var wire 1 $ acc_out [13] $end
$var wire 1 % acc_out [12] $end
$var wire 1 & acc_out [11] $end
$var wire 1 ' acc_out [10] $end
$var wire 1 ( acc_out [9] $end
$var wire 1 ) acc_out [8] $end
$var wire 1 * acc_out [7] $end
$var wire 1 + acc_out [6] $end
$var wire 1 , acc_out [5] $end
$var wire 1 - acc_out [4] $end
$var wire 1 . acc_out [3] $end
$var wire 1 / acc_out [2] $end
$var wire 1 0 acc_out [1] $end
$var wire 1 1 acc_out [0] $end
$var wire 1 2 address [11] $end
$var wire 1 3 address [10] $end
$var wire 1 4 address [9] $end
$var wire 1 5 address [8] $end
$var wire 1 6 address [7] $end
$var wire 1 7 address [6] $end
$var wire 1 8 address [5] $end
$var wire 1 9 address [4] $end
$var wire 1 : address [3] $end
$var wire 1 ; address [2] $end
$var wire 1 < address [1] $end
$var wire 1 = address [0] $end
$var wire 1 > beforemux3 [15] $end
$var wire 1 ? beforemux3 [14] $end
$var wire 1 @ beforemux3 [13] $end
$var wire 1 A beforemux3 [12] $end
$var wire 1 B beforemux3 [11] $end
$var wire 1 C beforemux3 [10] $end
$var wire 1 D beforemux3 [9] $end
$var wire 1 E beforemux3 [8] $end
$var wire 1 F beforemux3 [7] $end
$var wire 1 G beforemux3 [6] $end
$var wire 1 H beforemux3 [5] $end
$var wire 1 I beforemux3 [4] $end
$var wire 1 J beforemux3 [3] $end
$var wire 1 K beforemux3 [2] $end
$var wire 1 L beforemux3 [1] $end
$var wire 1 M beforemux3 [0] $end
$var wire 1 N MERGED [15] $end
$var wire 1 O MERGED [14] $end
$var wire 1 P MERGED [13] $end
$var wire 1 Q MERGED [12] $end
$var wire 1 R MERGED [11] $end
$var wire 1 S MERGED [10] $end
$var wire 1 T MERGED [9] $end
$var wire 1 U MERGED [8] $end
$var wire 1 V MERGED [7] $end
$var wire 1 W MERGED [6] $end
$var wire 1 X MERGED [5] $end
$var wire 1 Y MERGED [4] $end
$var wire 1 Z MERGED [3] $end
$var wire 1 [ MERGED [2] $end
$var wire 1 \ MERGED [1] $end
$var wire 1 ] MERGED [0] $end
$var wire 1 ^ out [15] $end
$var wire 1 _ out [14] $end
$var wire 1 ` out [13] $end
$var wire 1 a out [12] $end
$var wire 1 b out [11] $end
$var wire 1 c out [10] $end
$var wire 1 d out [9] $end
$var wire 1 e out [8] $end
$var wire 1 f out [7] $end
$var wire 1 g out [6] $end
$var wire 1 h out [5] $end
$var wire 1 i out [4] $end
$var wire 1 j out [3] $end
$var wire 1 k out [2] $end
$var wire 1 l out [1] $end
$var wire 1 m out [0] $end
$var wire 1 n pcout [11] $end
$var wire 1 o pcout [10] $end
$var wire 1 p pcout [9] $end
$var wire 1 q pcout [8] $end
$var wire 1 r pcout [7] $end
$var wire 1 s pcout [6] $end
$var wire 1 t pcout [5] $end
$var wire 1 u pcout [4] $end
$var wire 1 v pcout [3] $end
$var wire 1 w pcout [2] $end
$var wire 1 x pcout [1] $end
$var wire 1 y pcout [0] $end
$var wire 1 z sel_busmux $end
$var wire 1 { STATE [2] $end
$var wire 1 | STATE [1] $end
$var wire 1 } STATE [0] $end

$scope module i1 $end
$var wire 1 ~ gnd $end
$var wire 1 !! vcc $end
$var wire 1 "! unknown $end
$var tri1 1 #! devclrn $end
$var tri1 1 $! devpor $end
$var tri1 1 %! devoe $end
$var wire 1 &! sel_busmux~output_o $end
$var wire 1 '! acc_out[15]~output_o $end
$var wire 1 (! acc_out[14]~output_o $end
$var wire 1 )! acc_out[13]~output_o $end
$var wire 1 *! acc_out[12]~output_o $end
$var wire 1 +! acc_out[11]~output_o $end
$var wire 1 ,! acc_out[10]~output_o $end
$var wire 1 -! acc_out[9]~output_o $end
$var wire 1 .! acc_out[8]~output_o $end
$var wire 1 /! acc_out[7]~output_o $end
$var wire 1 0! acc_out[6]~output_o $end
$var wire 1 1! acc_out[5]~output_o $end
$var wire 1 2! acc_out[4]~output_o $end
$var wire 1 3! acc_out[3]~output_o $end
$var wire 1 4! acc_out[2]~output_o $end
$var wire 1 5! acc_out[1]~output_o $end
$var wire 1 6! acc_out[0]~output_o $end
$var wire 1 7! address[11]~output_o $end
$var wire 1 8! address[10]~output_o $end
$var wire 1 9! address[9]~output_o $end
$var wire 1 :! address[8]~output_o $end
$var wire 1 ;! address[7]~output_o $end
$var wire 1 <! address[6]~output_o $end
$var wire 1 =! address[5]~output_o $end
$var wire 1 >! address[4]~output_o $end
$var wire 1 ?! address[3]~output_o $end
$var wire 1 @! address[2]~output_o $end
$var wire 1 A! address[1]~output_o $end
$var wire 1 B! address[0]~output_o $end
$var wire 1 C! beforemux3[15]~output_o $end
$var wire 1 D! beforemux3[14]~output_o $end
$var wire 1 E! beforemux3[13]~output_o $end
$var wire 1 F! beforemux3[12]~output_o $end
$var wire 1 G! beforemux3[11]~output_o $end
$var wire 1 H! beforemux3[10]~output_o $end
$var wire 1 I! beforemux3[9]~output_o $end
$var wire 1 J! beforemux3[8]~output_o $end
$var wire 1 K! beforemux3[7]~output_o $end
$var wire 1 L! beforemux3[6]~output_o $end
$var wire 1 M! beforemux3[5]~output_o $end
$var wire 1 N! beforemux3[4]~output_o $end
$var wire 1 O! beforemux3[3]~output_o $end
$var wire 1 P! beforemux3[2]~output_o $end
$var wire 1 Q! beforemux3[1]~output_o $end
$var wire 1 R! beforemux3[0]~output_o $end
$var wire 1 S! MERGED[15]~output_o $end
$var wire 1 T! MERGED[14]~output_o $end
$var wire 1 U! MERGED[13]~output_o $end
$var wire 1 V! MERGED[12]~output_o $end
$var wire 1 W! MERGED[11]~output_o $end
$var wire 1 X! MERGED[10]~output_o $end
$var wire 1 Y! MERGED[9]~output_o $end
$var wire 1 Z! MERGED[8]~output_o $end
$var wire 1 [! MERGED[7]~output_o $end
$var wire 1 \! MERGED[6]~output_o $end
$var wire 1 ]! MERGED[5]~output_o $end
$var wire 1 ^! MERGED[4]~output_o $end
$var wire 1 _! MERGED[3]~output_o $end
$var wire 1 `! MERGED[2]~output_o $end
$var wire 1 a! MERGED[1]~output_o $end
$var wire 1 b! MERGED[0]~output_o $end
$var wire 1 c! out[15]~output_o $end
$var wire 1 d! out[14]~output_o $end
$var wire 1 e! out[13]~output_o $end
$var wire 1 f! out[12]~output_o $end
$var wire 1 g! out[11]~output_o $end
$var wire 1 h! out[10]~output_o $end
$var wire 1 i! out[9]~output_o $end
$var wire 1 j! out[8]~output_o $end
$var wire 1 k! out[7]~output_o $end
$var wire 1 l! out[6]~output_o $end
$var wire 1 m! out[5]~output_o $end
$var wire 1 n! out[4]~output_o $end
$var wire 1 o! out[3]~output_o $end
$var wire 1 p! out[2]~output_o $end
$var wire 1 q! out[1]~output_o $end
$var wire 1 r! out[0]~output_o $end
$var wire 1 s! pcout[11]~output_o $end
$var wire 1 t! pcout[10]~output_o $end
$var wire 1 u! pcout[9]~output_o $end
$var wire 1 v! pcout[8]~output_o $end
$var wire 1 w! pcout[7]~output_o $end
$var wire 1 x! pcout[6]~output_o $end
$var wire 1 y! pcout[5]~output_o $end
$var wire 1 z! pcout[4]~output_o $end
$var wire 1 {! pcout[3]~output_o $end
$var wire 1 |! pcout[2]~output_o $end
$var wire 1 }! pcout[1]~output_o $end
$var wire 1 ~! pcout[0]~output_o $end
$var wire 1 !" STATE[2]~output_o $end
$var wire 1 "" STATE[1]~output_o $end
$var wire 1 #" STATE[0]~output_o $end
$var wire 1 $" CLK~input_o $end
$var wire 1 %" inst10|NS~1_combout $end
$var wire 1 &" register3|stupid_dff~0_combout $end
$var wire 1 '" register3|stupid_dff~q $end
$var wire 1 (" ALU|auto_generated|add_sub_cella[0]~2_cout $end
$var wire 1 )" MUX3|$00000|auto_generated|l1_w0_n0_mux_dataout~0_combout $end
$var wire 1 *" inst10|EXEC1~combout $end
$var wire 1 +" MUX|$00000|auto_generated|l1_w1_n0_mux_dataout~0_combout $end
$var wire 1 ," inst4|auto_generated|counter_comb_bita0~sumout $end
$var wire 1 -" decoder|SLOAD~0_combout $end
$var wire 1 ." ALU|auto_generated|add_sub_cella[0]~COUT $end
$var wire 1 /" ALU|auto_generated|add_sub_cella[1]~COUT $end
$var wire 1 0" MUX3|$00000|auto_generated|l1_w2_n0_mux_dataout~0_combout $end
$var wire 1 1" MUX|$00000|auto_generated|l1_w3_n0_mux_dataout~0_combout $end
$var wire 1 2" inst4|auto_generated|counter_comb_bita1~COUT $end
$var wire 1 3" inst4|auto_generated|counter_comb_bita2~sumout $end
$var wire 1 4" inst4|auto_generated|_~0_combout $end
$var wire 1 5" inst4|auto_generated|_~1_combout $end
$var wire 1 6" inst4|auto_generated|counter_comb_bita2~COUT $end
$var wire 1 7" inst4|auto_generated|counter_comb_bita3~sumout $end
$var wire 1 8" MUX1|$00000|auto_generated|l1_w3_n0_mux_dataout~0_combout $end
$var wire 1 9" ALU|auto_generated|add_sub_cella[2]~COUT $end
$var wire 1 :" ALU|auto_generated|add_sub_cella[3]~COUT $end
$var wire 1 ;" MUX3|$00000|auto_generated|l1_w4_n0_mux_dataout~0_combout $end
$var wire 1 <" decoder|SLOAD_ACC~0_combout $end
$var wire 1 =" decoder|SLOAD_ACC~1_combout $end
$var wire 1 >" decoder|shift~0_combout $end
$var wire 1 ?" decoder|enable_acc~combout $end
$var wire 1 @" MUX|$00000|auto_generated|l1_w5_n0_mux_dataout~0_combout $end
$var wire 1 A" inst4|auto_generated|counter_comb_bita3~COUT $end
$var wire 1 B" inst4|auto_generated|counter_comb_bita4~sumout $end
$var wire 1 C" inst4|auto_generated|counter_comb_bita4~COUT $end
$var wire 1 D" inst4|auto_generated|counter_comb_bita5~sumout $end
$var wire 1 E" MUX1|$00000|auto_generated|l1_w5_n0_mux_dataout~0_combout $end
$var wire 1 F" ALU|auto_generated|add_sub_cella[4]~COUT $end
$var wire 1 G" ALU|auto_generated|add_sub_cella[5]~COUT $end
$var wire 1 H" MUX3|$00000|auto_generated|l1_w6_n0_mux_dataout~0_combout $end
$var wire 1 I" MUX|$00000|auto_generated|l1_w7_n0_mux_dataout~0_combout $end
$var wire 1 J" inst4|auto_generated|counter_comb_bita5~COUT $end
$var wire 1 K" inst4|auto_generated|counter_comb_bita6~sumout $end
$var wire 1 L" inst4|auto_generated|counter_comb_bita6~COUT $end
$var wire 1 M" inst4|auto_generated|counter_comb_bita7~sumout $end
$var wire 1 N" MUX1|$00000|auto_generated|l1_w7_n0_mux_dataout~0_combout $end
$var wire 1 O" ALU|auto_generated|add_sub_cella[6]~COUT $end
$var wire 1 P" ALU|auto_generated|add_sub_cella[7]~COUT $end
$var wire 1 Q" MUX3|$00000|auto_generated|l1_w8_n0_mux_dataout~0_combout $end
$var wire 1 R" MUX|$00000|auto_generated|l1_w9_n0_mux_dataout~0_combout $end
$var wire 1 S" inst4|auto_generated|counter_comb_bita7~COUT $end
$var wire 1 T" inst4|auto_generated|counter_comb_bita8~sumout $end
$var wire 1 U" inst4|auto_generated|counter_comb_bita8~COUT $end
$var wire 1 V" inst4|auto_generated|counter_comb_bita9~sumout $end
$var wire 1 W" MUX1|$00000|auto_generated|l1_w9_n0_mux_dataout~0_combout $end
$var wire 1 X" ALU|auto_generated|add_sub_cella[8]~COUT $end
$var wire 1 Y" ALU|auto_generated|add_sub_cella[9]~COUT $end
$var wire 1 Z" MUX3|$00000|auto_generated|l1_w10_n0_mux_dataout~0_combout $end
$var wire 1 [" MUX|$00000|auto_generated|l1_w11_n0_mux_dataout~0_combout $end
$var wire 1 \" inst4|auto_generated|counter_comb_bita9~COUT $end
$var wire 1 ]" inst4|auto_generated|counter_comb_bita10~sumout $end
$var wire 1 ^" inst4|auto_generated|counter_comb_bita10~COUT $end
$var wire 1 _" inst4|auto_generated|counter_comb_bita11~sumout $end
$var wire 1 `" MUX1|$00000|auto_generated|l1_w11_n0_mux_dataout~0_combout $end
$var wire 1 a" MUX|$00000|auto_generated|l1_w10_n0_mux_dataout~0_combout $end
$var wire 1 b" MUX1|$00000|auto_generated|l1_w10_n0_mux_dataout~0_combout $end
$var wire 1 c" MUX3|$00000|auto_generated|l1_w9_n0_mux_dataout~0_combout $end
$var wire 1 d" MUX|$00000|auto_generated|l1_w8_n0_mux_dataout~0_combout $end
$var wire 1 e" MUX1|$00000|auto_generated|l1_w8_n0_mux_dataout~0_combout $end
$var wire 1 f" MUX3|$00000|auto_generated|l1_w7_n0_mux_dataout~0_combout $end
$var wire 1 g" MUX|$00000|auto_generated|l1_w6_n0_mux_dataout~0_combout $end
$var wire 1 h" MUX1|$00000|auto_generated|l1_w6_n0_mux_dataout~0_combout $end
$var wire 1 i" MUX|$00000|auto_generated|l1_w4_n0_mux_dataout~0_combout $end
$var wire 1 j" MUX1|$00000|auto_generated|l1_w4_n0_mux_dataout~0_combout $end
$var wire 1 k" MUX3|$00000|auto_generated|l1_w3_n0_mux_dataout~0_combout $end
$var wire 1 l" MUX|$00000|auto_generated|l1_w2_n0_mux_dataout~0_combout $end
$var wire 1 m" MUX1|$00000|auto_generated|l1_w2_n0_mux_dataout~0_combout $end
$var wire 1 n" MUX3|$00000|auto_generated|l1_w5_n0_mux_dataout~0_combout $end
$var wire 1 o" decoder|SLOAD~1_combout $end
$var wire 1 p" decoder|SLOAD~2_combout $end
$var wire 1 q" decoder|SLOAD~3_combout $end
$var wire 1 r" decoder|SLOAD~4_combout $end
$var wire 1 s" decoder|SLOAD~5_combout $end
$var wire 1 t" inst4|auto_generated|counter_comb_bita0~COUT $end
$var wire 1 u" inst4|auto_generated|counter_comb_bita1~sumout $end
$var wire 1 v" MUX1|$00000|auto_generated|l1_w1_n0_mux_dataout~0_combout $end
$var wire 1 w" MUX3|$00000|auto_generated|l1_w1_n0_mux_dataout~0_combout $end
$var wire 1 x" MUX|$00000|auto_generated|l1_w0_n0_mux_dataout~0_combout $end
$var wire 1 y" MUX1|$00000|auto_generated|l1_w0_n0_mux_dataout~0_combout $end
$var wire 1 z" ALU|auto_generated|add_sub_cella[10]~COUT $end
$var wire 1 {" MUX3|$00000|auto_generated|l1_w11_n0_mux_dataout~0_combout $end
$var wire 1 |" ALU|auto_generated|add_sub_cella[11]~COUT $end
$var wire 1 }" ALU|auto_generated|add_sub_cella[12]~COUT $end
$var wire 1 ~" MUX3|$00000|auto_generated|l1_w13_n0_mux_dataout~0_combout $end
$var wire 1 !# ALU|auto_generated|add_sub_cella[13]~COUT $end
$var wire 1 "# ALU|auto_generated|add_sub_cella[14]~COUT $end
$var wire 1 ## MUX3|$00000|auto_generated|l1_w15_n0_mux_dataout~0_combout $end
$var wire 1 $# MUX|$00000|auto_generated|l1_w15_n0_mux_dataout~0_combout $end
$var wire 1 %# decoder|add_sub~0_combout $end
$var wire 1 &# MUX3|$00000|auto_generated|l1_w14_n0_mux_dataout~0_combout $end
$var wire 1 '# MUX|$00000|auto_generated|l1_w14_n0_mux_dataout~0_combout $end
$var wire 1 (# decoder|MUX3~0_combout $end
$var wire 1 )# MUX3|$00000|auto_generated|l1_w12_n0_mux_dataout~0_combout $end
$var wire 1 *# MUX|$00000|auto_generated|l1_w12_n0_mux_dataout~0_combout $end
$var wire 1 +# decoder|WREN~0_combout $end
$var wire 1 ,# MUX|$00000|auto_generated|l1_w13_n0_mux_dataout~0_combout $end
$var wire 1 -# inst10|NS[1]~0_combout $end
$var wire 1 .# register3|inst1~q $end
$var wire 1 /# decoder|MUX1~0_combout $end
$var wire 1 0# ALU|auto_generated|result [15] $end
$var wire 1 1# ALU|auto_generated|result [14] $end
$var wire 1 2# ALU|auto_generated|result [13] $end
$var wire 1 3# ALU|auto_generated|result [12] $end
$var wire 1 4# ALU|auto_generated|result [11] $end
$var wire 1 5# ALU|auto_generated|result [10] $end
$var wire 1 6# ALU|auto_generated|result [9] $end
$var wire 1 7# ALU|auto_generated|result [8] $end
$var wire 1 8# ALU|auto_generated|result [7] $end
$var wire 1 9# ALU|auto_generated|result [6] $end
$var wire 1 :# ALU|auto_generated|result [5] $end
$var wire 1 ;# ALU|auto_generated|result [4] $end
$var wire 1 <# ALU|auto_generated|result [3] $end
$var wire 1 =# ALU|auto_generated|result [2] $end
$var wire 1 ># ALU|auto_generated|result [1] $end
$var wire 1 ?# ALU|auto_generated|result [0] $end
$var wire 1 @# inst4|auto_generated|counter_reg_bit [11] $end
$var wire 1 A# inst4|auto_generated|counter_reg_bit [10] $end
$var wire 1 B# inst4|auto_generated|counter_reg_bit [9] $end
$var wire 1 C# inst4|auto_generated|counter_reg_bit [8] $end
$var wire 1 D# inst4|auto_generated|counter_reg_bit [7] $end
$var wire 1 E# inst4|auto_generated|counter_reg_bit [6] $end
$var wire 1 F# inst4|auto_generated|counter_reg_bit [5] $end
$var wire 1 G# inst4|auto_generated|counter_reg_bit [4] $end
$var wire 1 H# inst4|auto_generated|counter_reg_bit [3] $end
$var wire 1 I# inst4|auto_generated|counter_reg_bit [2] $end
$var wire 1 J# inst4|auto_generated|counter_reg_bit [1] $end
$var wire 1 K# inst4|auto_generated|counter_reg_bit [0] $end
$var wire 1 L# IR|dffs [15] $end
$var wire 1 M# IR|dffs [14] $end
$var wire 1 N# IR|dffs [13] $end
$var wire 1 O# IR|dffs [12] $end
$var wire 1 P# IR|dffs [11] $end
$var wire 1 Q# IR|dffs [10] $end
$var wire 1 R# IR|dffs [9] $end
$var wire 1 S# IR|dffs [8] $end
$var wire 1 T# IR|dffs [7] $end
$var wire 1 U# IR|dffs [6] $end
$var wire 1 V# IR|dffs [5] $end
$var wire 1 W# IR|dffs [4] $end
$var wire 1 X# IR|dffs [3] $end
$var wire 1 Y# IR|dffs [2] $end
$var wire 1 Z# IR|dffs [1] $end
$var wire 1 [# IR|dffs [0] $end
$var wire 1 \# ACC|dffs [15] $end
$var wire 1 ]# ACC|dffs [14] $end
$var wire 1 ^# ACC|dffs [13] $end
$var wire 1 _# ACC|dffs [12] $end
$var wire 1 `# ACC|dffs [11] $end
$var wire 1 a# ACC|dffs [10] $end
$var wire 1 b# ACC|dffs [9] $end
$var wire 1 c# ACC|dffs [8] $end
$var wire 1 d# ACC|dffs [7] $end
$var wire 1 e# ACC|dffs [6] $end
$var wire 1 f# ACC|dffs [5] $end
$var wire 1 g# ACC|dffs [4] $end
$var wire 1 h# ACC|dffs [3] $end
$var wire 1 i# ACC|dffs [2] $end
$var wire 1 j# ACC|dffs [1] $end
$var wire 1 k# ACC|dffs [0] $end
$var wire 1 l# ram|altsyncram_component|auto_generated|q_a [15] $end
$var wire 1 m# ram|altsyncram_component|auto_generated|q_a [14] $end
$var wire 1 n# ram|altsyncram_component|auto_generated|q_a [13] $end
$var wire 1 o# ram|altsyncram_component|auto_generated|q_a [12] $end
$var wire 1 p# ram|altsyncram_component|auto_generated|q_a [11] $end
$var wire 1 q# ram|altsyncram_component|auto_generated|q_a [10] $end
$var wire 1 r# ram|altsyncram_component|auto_generated|q_a [9] $end
$var wire 1 s# ram|altsyncram_component|auto_generated|q_a [8] $end
$var wire 1 t# ram|altsyncram_component|auto_generated|q_a [7] $end
$var wire 1 u# ram|altsyncram_component|auto_generated|q_a [6] $end
$var wire 1 v# ram|altsyncram_component|auto_generated|q_a [5] $end
$var wire 1 w# ram|altsyncram_component|auto_generated|q_a [4] $end
$var wire 1 x# ram|altsyncram_component|auto_generated|q_a [3] $end
$var wire 1 y# ram|altsyncram_component|auto_generated|q_a [2] $end
$var wire 1 z# ram|altsyncram_component|auto_generated|q_a [1] $end
$var wire 1 {# ram|altsyncram_component|auto_generated|q_a [0] $end
$var wire 1 |# ram|altsyncram_component|auto_generated|ram_block1a15_PORTADATAOUT_bus [0] $end
$var wire 1 }# ram|altsyncram_component|auto_generated|ram_block1a14_PORTADATAOUT_bus [0] $end
$var wire 1 ~# ram|altsyncram_component|auto_generated|ram_block1a11_PORTADATAOUT_bus [0] $end
$var wire 1 !$ ram|altsyncram_component|auto_generated|ram_block1a10_PORTADATAOUT_bus [0] $end
$var wire 1 "$ ram|altsyncram_component|auto_generated|ram_block1a9_PORTADATAOUT_bus [0] $end
$var wire 1 #$ ram|altsyncram_component|auto_generated|ram_block1a8_PORTADATAOUT_bus [0] $end
$var wire 1 $$ ram|altsyncram_component|auto_generated|ram_block1a7_PORTADATAOUT_bus [0] $end
$var wire 1 %$ ram|altsyncram_component|auto_generated|ram_block1a6_PORTADATAOUT_bus [0] $end
$var wire 1 &$ ram|altsyncram_component|auto_generated|ram_block1a5_PORTADATAOUT_bus [0] $end
$var wire 1 '$ ram|altsyncram_component|auto_generated|ram_block1a4_PORTADATAOUT_bus [0] $end
$var wire 1 ($ ram|altsyncram_component|auto_generated|ram_block1a3_PORTADATAOUT_bus [0] $end
$var wire 1 )$ ram|altsyncram_component|auto_generated|ram_block1a2_PORTADATAOUT_bus [0] $end
$var wire 1 *$ ram|altsyncram_component|auto_generated|ram_block1a1_PORTADATAOUT_bus [0] $end
$var wire 1 +$ ram|altsyncram_component|auto_generated|ram_block1a0_PORTADATAOUT_bus [0] $end
$var wire 1 ,$ ram|altsyncram_component|auto_generated|ram_block1a13_PORTADATAOUT_bus [0] $end
$var wire 1 -$ ram|altsyncram_component|auto_generated|ram_block1a12_PORTADATAOUT_bus [0] $end
$upscope $end
$upscope $end
$enddefinitions $end
#0
$dumpvars
0!
0*"
0+"
1,"
1-"
1."
1/"
00"
01"
02"
03"
04"
05"
06"
07"
08"
19"
1:"
0;"
0<"
1="
0>"
0?"
0@"
0A"
0B"
0C"
0D"
0E"
1F"
1G"
0H"
0I"
0J"
0K"
0L"
0M"
0N"
1O"
1P"
0Q"
0R"
0S"
0T"
0U"
0V"
0W"
1X"
1Y"
0Z"
0["
0\"
0]"
0^"
0_"
0`"
0a"
0b"
0c"
0d"
0e"
0f"
0g"
0h"
0i"
0j"
0k"
0l"
0m"
0n"
1o"
1p"
1q"
0r"
0s"
0t"
0u"
0v"
0w"
0x"
0y"
1z"
0{"
1|"
1}"
0~"
1!#
1"#
0##
0$#
0%#
0&#
0'#
1(#
0)#
0*#
0+#
0,#
0-#
0.#
0/#
0?#
0>#
0=#
0<#
0;#
0:#
09#
08#
07#
06#
05#
04#
03#
02#
01#
00#
0K#
0J#
0I#
0H#
0G#
0F#
0E#
0D#
0C#
0B#
0A#
0@#
0[#
0Z#
0Y#
0X#
0W#
0V#
0U#
0T#
0S#
0R#
0Q#
0P#
0O#
0N#
0M#
0L#
0k#
0j#
0i#
0h#
0g#
0f#
0e#
0d#
0c#
0b#
0a#
0`#
0_#
0^#
0]#
0\#
0{#
0z#
0y#
0x#
0w#
0v#
0u#
0t#
0s#
0r#
0q#
0p#
0o#
0n#
0m#
0l#
0|#
0}#
0~#
0!$
0"$
0#$
0$$
0%$
0&$
0'$
0($
0)$
0*$
0+$
0,$
0-$
01
00
0/
0.
0-
0,
0+
0*
0)
0(
0'
0&
0%
0$
0#
0"
0=
0<
0;
0:
09
08
07
06
05
04
03
02
0M
0L
0K
0J
0I
0H
0G
0F
0E
0D
0C
0B
0A
0@
0?
0>
0]
0\
0[
0Z
0Y
0X
0W
0V
0U
0T
0S
0R
0Q
0P
0O
0N
0m
0l
0k
0j
0i
0h
0g
0f
0e
0d
0c
0b
0a
0`
0_
0^
0y
0x
0w
0v
0u
0t
0s
0r
0q
0p
0o
0n
0z
1}
0|
0{
0~
1!!
x"!
1#!
1$!
1%!
0&!
0'!
0(!
0)!
0*!
0+!
0,!
0-!
0.!
0/!
00!
01!
02!
03!
04!
05!
06!
07!
08!
09!
0:!
0;!
0<!
0=!
0>!
0?!
0@!
0A!
0B!
0C!
0D!
0E!
0F!
0G!
0H!
0I!
0J!
0K!
0L!
0M!
0N!
0O!
0P!
0Q!
0R!
0S!
0T!
0U!
0V!
0W!
0X!
0Y!
0Z!
0[!
0\!
0]!
0^!
0_!
0`!
0a!
0b!
0c!
0d!
0e!
0f!
0g!
0h!
0i!
0j!
0k!
0l!
0m!
0n!
0o!
0p!
0q!
0r!
0s!
0t!
0u!
0v!
0w!
0x!
0y!
0z!
0{!
0|!
0}!
0~!
0!"
0""
1#"
0$"
0%"
1&"
0'"
1("
0)"
$end
#60000
1!
1$"
1'"
1*"
1%"
1/#
1&!
0#"
0}
1z
0&"
1-#
1""
1|
#60001
1#$
1&$
1*$
1+$
1|#
1s#
1v#
1z#
1{#
1l#
1C!
1c!
1R!
1r!
1Q!
1q!
1M!
1m!
1J!
1j!
1$#
10#
1x"
0."
1?#
0/"
1>#
1+"
0G"
1:#
1@"
1d"
0X"
17#
1e
1E
1h
1H
1l
1L
1m
1M
1^
1>
0/#
1)"
1w"
1n"
1Q"
1Z!
1]!
1a!
1b!
0&!
0>#
09"
1=#
0O"
19#
0Y"
16#
0="
14"
0z
1]
1\
1X
1U
0-#
0""
0:"
1<#
0P"
18#
0z"
15#
15"
1?"
0|
0F"
1;#
07#
0|"
14#
0:#
0}"
13#
0!#
12#
0"#
11#
00#
#70000
0!
0$"
#80000
1!
1$"
1[#
1S#
1V#
1L#
1Z#
0'"
1k#
1j#
1K#
1f#
1c#
1.!
11!
1~!
15!
16!
0*"
0%"
0o"
17#
0q"
1:#
1t"
0p"
1>#
1."
0?#
11
10
1y
1,
1)
1y"
0,"
1B!
1#"
1/"
0>#
1="
1}
1=
1u"
1&"
19"
0=#
0?"
1:"
0<#
1F"
0;#
1G"
0:#
1O"
09#
1P"
08#
1X"
07#
1Y"
06#
1z"
05#
1|"
04#
1}"
03#
1!#
02#
1"#
01#
10#
#90000
0!
0$"
#100000
1!
1$"
1'"
1J#
0K#
0~!
1}!
1*"
1%"
0t"
12"
1x
0y
0y"
1,"
1v"
0u"
1A!
0B!
0#"
02"
0="
0}
0=
1<
1u"
13"
0&"
1?"
03"
#100001
0#$
0&$
0*$
0+$
0|#
0s#
0v#
0z#
0{#
0l#
0C!
0c!
0R!
0r!
0Q!
0q!
0M!
0m!
0J!
0j!
0$#
00#
0x"
1?#
1>#
0+"
1:#
0@"
0d"
17#
0e
0E
0h
0H
0l
0L
0m
0M
0^
0>
1/#
0)"
0w"
0n"
0Q"
0Z!
0]!
0a!
0b!
1&!
1="
04"
1z
0]
0\
0X
0U
0v"
1-#
1""
0A!
05"
0?"
0<
1|
#110000
0!
0$"
#120000
1!
1$"
1.#
0[#
0S#
0V#
0L#
0Z#
0'"
1<"
14"
0*"
0/#
0&!
0="
15"
0z
0-#
1v"
1A!
0""
1?"
0|
1<
#120001
1#$
1&$
1*$
1+$
1|#
1s#
1v#
1z#
1{#
1l#
1C!
1c!
1R!
1r!
1Q!
1q!
1M!
1m!
1J!
1j!
10#
0?#
0>#
0:#
07#
1e
1E
1h
1H
1l
1L
1m
1M
1^
1>
1)"
1w"
1n"
1Q"
1Z!
1]!
1a!
1b!
1]
1\
1X
1U
#130000
0!
0$"
#140000
1!
1$"
0.#
1[#
1S#
1V#
1L#
1Z#
1K#
1~!
1+"
1$#
0<"
1@"
1d"
1x"
04"
0%"
1t"
1y
1y"
0,"
1B!
1#"
12"
05"
1="
14"
1}
1=
0u"
1&"
15"
0?"
13"
#140001
0&$
0+$
0|#
1-$
0v#
0{#
0l#
1o#
1F!
1f!
0C!
0c!
0R!
0r!
0M!
0m!
0}"
13#
00#
1?#
1:#
0h
0H
0m
0M
0^
0>
1a
1A
0)"
0n"
0]!
0b!
0!#
12#
0]
0X
0"#
11#
10#
#150000
0!
0$"
#160000
1!
1$"
0[#
0V#
1O#
0L#
1'"
0J#
0K#
1I#
1|!
0~!
0}!
1*#
0$#
0x"
0@"
1*"
1%"
16"
0t"
02"
0x
0y
1w
1/#
1m"
03"
0y"
1,"
0v"
1u"
0A!
0B!
1@!
1&!
0#"
06"
1+#
0(#
0}
1z
1;
0=
0<
17"
0u"
13"
0&"
1v"
0m"
1e"
1:!
0@!
1A!
1<
0;
15
07"
1)#
1&#
1##
1~"
0w"
1n"
0Q"
1)"
1b!
0Z!
1]!
0a!
1U!
1S!
1T!
1V!
1Q
1O
1N
1P
0\
1X
0U
1]
#160001
0#$
0*$
1|#
0-$
1,$
0s#
0z#
1l#
0o#
1n#
1E!
1e!
0F!
0f!
1C!
1c!
0Q!
0q!
0J!
0j!
1,#
02#
0*#
1}"
03#
1$#
00#
1>#
0+"
0d"
17#
0e
0E
0l
0L
1^
1>
0a
0A
1`
1@
0/#
0&!
12#
1>"
04"
0+#
0z
1Q"
0e"
0v"
1w"
0##
0)#
0~"
1m"
1@!
0U!
0V!
0S!
1a!
0A!
0:!
1Z!
05"
1?"
1U
05
0<
1\
0N
0Q
0P
1;
1~"
1U!
1P
#170000
0!
0$"
#180000
1!
1$"
0S#
0O#
1N#
1L#
0Z#
0'"
1\#
0j#
0f#
1d#
0c#
1g#
12!
0.!
1/!
01!
05!
1'!
0*"
0%"
1;#
07#
18#
0:#
0>#
10#
1"
00
0,
1*
0)
1-
1#"
0>"
1}
1##
0w"
0n"
1f"
0Q"
1;"
1&"
1^!
0Z!
1[!
0]!
0a!
1S!
0?"
1N
0\
0X
1V
0U
1Y
#180001
1*$
0|#
1z#
0l#
0C!
0c!
1Q!
1q!
00#
0/"
1>#
1l
1L
0^
0>
09"
1=#
1w"
0##
0S!
1a!
0:"
1<#
1\
0N
10"
1`!
0;#
1[
1k"
1_!
1Z
0;"
0^!
0Y
#190000
0!
0$"
