simulation/qsim/MU0CPUFINAL.msim.vcd
$comment
	File created using the following command:
		vcd file MU0CPUFINAL.msim.vcd -direction
$end
$date
	Wed Feb 26 12:16:09 2020
$end
$version
	ModelSim Version 10.5b
$end
$timescale
	1ps
$end

$scope module MU0CPU_vlg_vec_tst $end
$var reg 1 ! CLK $end
$var wire 1 " ACC_OUT [15] $end
$var wire 1 # ACC_OUT [14] $end
$var wire 1 $ ACC_OUT [13] $end
$var wire 1 % ACC_OUT [12] $end
$var wire 1 & ACC_OUT [11] $end
$var wire 1 ' ACC_OUT [10] $end
$var wire 1 ( ACC_OUT [9] $end
$var wire 1 ) ACC_OUT [8] $end
$var wire 1 * ACC_OUT [7] $end
$var wire 1 + ACC_OUT [6] $end
$var wire 1 , ACC_OUT [5] $end
$var wire 1 - ACC_OUT [4] $end
$var wire 1 . ACC_OUT [3] $end
$var wire 1 / ACC_OUT [2] $end
$var wire 1 0 ACC_OUT [1] $end
$var wire 1 1 ACC_OUT [0] $end
$var wire 1 2 accum [15] $end
$var wire 1 3 accum [14] $end
$var wire 1 4 accum [13] $end
$var wire 1 5 accum [12] $end
$var wire 1 6 accum [11] $end
$var wire 1 7 accum [10] $end
$var wire 1 8 accum [9] $end
$var wire 1 9 accum [8] $end
$var wire 1 : accum [7] $end
$var wire 1 ; accum [6] $end
$var wire 1 < accum [5] $end
$var wire 1 = accum [4] $end
$var wire 1 > accum [3] $end
$var wire 1 ? accum [2] $end
$var wire 1 @ accum [1] $end
$var wire 1 A accum [0] $end
$var wire 1 B EXEC1 $end
$var wire 1 C EXEC2 $end
$var wire 1 D FETCH $end
$var wire 1 E MERGED [15] $end
$var wire 1 F MERGED [14] $end
$var wire 1 G MERGED [13] $end
$var wire 1 H MERGED [12] $end
$var wire 1 I MERGED [11] $end
$var wire 1 J MERGED [10] $end
$var wire 1 K MERGED [9] $end
$var wire 1 L MERGED [8] $end
$var wire 1 M MERGED [7] $end
$var wire 1 N MERGED [6] $end
$var wire 1 O MERGED [5] $end
$var wire 1 P MERGED [4] $end
$var wire 1 Q MERGED [3] $end
$var wire 1 R MERGED [2] $end
$var wire 1 S MERGED [1] $end
$var wire 1 T MERGED [0] $end
$var wire 1 U MUXX $end
$var wire 1 V PC_OUT [11] $end
$var wire 1 W PC_OUT [10] $end
$var wire 1 X PC_OUT [9] $end
$var wire 1 Y PC_OUT [8] $end
$var wire 1 Z PC_OUT [7] $end
$var wire 1 [ PC_OUT [6] $end
$var wire 1 \ PC_OUT [5] $end
$var wire 1 ] PC_OUT [4] $end
$var wire 1 ^ PC_OUT [3] $end
$var wire 1 _ PC_OUT [2] $end
$var wire 1 ` PC_OUT [1] $end
$var wire 1 a PC_OUT [0] $end
$var wire 1 b RAM_ADDRESS_IN [11] $end
$var wire 1 c RAM_ADDRESS_IN [10] $end
$var wire 1 d RAM_ADDRESS_IN [9] $end
$var wire 1 e RAM_ADDRESS_IN [8] $end
$var wire 1 f RAM_ADDRESS_IN [7] $end
$var wire 1 g RAM_ADDRESS_IN [6] $end
$var wire 1 h RAM_ADDRESS_IN [5] $end
$var wire 1 i RAM_ADDRESS_IN [4] $end
$var wire 1 j RAM_ADDRESS_IN [3] $end
$var wire 1 k RAM_ADDRESS_IN [2] $end
$var wire 1 l RAM_ADDRESS_IN [1] $end
$var wire 1 m RAM_ADDRESS_IN [0] $end
$var wire 1 n RAM_OUT [15] $end
$var wire 1 o RAM_OUT [14] $end
$var wire 1 p RAM_OUT [13] $end
$var wire 1 q RAM_OUT [12] $end
$var wire 1 r RAM_OUT [11] $end
$var wire 1 s RAM_OUT [10] $end
$var wire 1 t RAM_OUT [9] $end
$var wire 1 u RAM_OUT [8] $end
$var wire 1 v RAM_OUT [7] $end
$var wire 1 w RAM_OUT [6] $end
$var wire 1 x RAM_OUT [5] $end
$var wire 1 y RAM_OUT [4] $end
$var wire 1 z RAM_OUT [3] $end
$var wire 1 { RAM_OUT [2] $end
$var wire 1 | RAM_OUT [1] $end
$var wire 1 } RAM_OUT [0] $end

$scope module i1 $end
$var wire 1 ~ gnd $end
$var wire 1 !! vcc $end
$var wire 1 "! unknown $end
$var tri1 1 #! devclrn $end
$var tri1 1 $! devpor $end
$var tri1 1 %! devoe $end
$var wire 1 &! MUXX~output_o $end
$var wire 1 '! ACC_OUT[15]~output_o $end
$var wire 1 (! ACC_OUT[14]~output_o $end
$var wire 1 )! ACC_OUT[13]~output_o $end
$var wire 1 *! ACC_OUT[12]~output_o $end
$var wire 1 +! ACC_OUT[11]~output_o $end
$var wire 1 ,! ACC_OUT[10]~output_o $end
$var wire 1 -! ACC_OUT[9]~output_o $end
$var wire 1 .! ACC_OUT[8]~output_o $end
$var wire 1 /! ACC_OUT[7]~output_o $end
$var wire 1 0! ACC_OUT[6]~output_o $end
$var wire 1 1! ACC_OUT[5]~output_o $end
$var wire 1 2! ACC_OUT[4]~output_o $end
$var wire 1 3! ACC_OUT[3]~output_o $end
$var wire 1 4! ACC_OUT[2]~output_o $end
$var wire 1 5! ACC_OUT[1]~output_o $end
$var wire 1 6! ACC_OUT[0]~output_o $end
$var wire 1 7! RAM_OUT[15]~output_o $end
$var wire 1 8! RAM_OUT[14]~output_o $end
$var wire 1 9! RAM_OUT[13]~output_o $end
$var wire 1 :! RAM_OUT[12]~output_o $end
$var wire 1 ;! RAM_OUT[11]~output_o $end
$var wire 1 <! RAM_OUT[10]~output_o $end
$var wire 1 =! RAM_OUT[9]~output_o $end
$var wire 1 >! RAM_OUT[8]~output_o $end
$var wire 1 ?! RAM_OUT[7]~output_o $end
$var wire 1 @! RAM_OUT[6]~output_o $end
$var wire 1 A! RAM_OUT[5]~output_o $end
$var wire 1 B! RAM_OUT[4]~output_o $end
$var wire 1 C! RAM_OUT[3]~output_o $end
$var wire 1 D! RAM_OUT[2]~output_o $end
$var wire 1 E! RAM_OUT[1]~output_o $end
$var wire 1 F! RAM_OUT[0]~output_o $end
$var wire 1 G! RAM_ADDRESS_IN[11]~output_o $end
$var wire 1 H! RAM_ADDRESS_IN[10]~output_o $end
$var wire 1 I! RAM_ADDRESS_IN[9]~output_o $end
$var wire 1 J! RAM_ADDRESS_IN[8]~output_o $end
$var wire 1 K! RAM_ADDRESS_IN[7]~output_o $end
$var wire 1 L! RAM_ADDRESS_IN[6]~output_o $end
$var wire 1 M! RAM_ADDRESS_IN[5]~output_o $end
$var wire 1 N! RAM_ADDRESS_IN[4]~output_o $end
$var wire 1 O! RAM_ADDRESS_IN[3]~output_o $end
$var wire 1 P! RAM_ADDRESS_IN[2]~output_o $end
$var wire 1 Q! RAM_ADDRESS_IN[1]~output_o $end
$var wire 1 R! RAM_ADDRESS_IN[0]~output_o $end
$var wire 1 S! PC_OUT[11]~output_o $end
$var wire 1 T! PC_OUT[10]~output_o $end
$var wire 1 U! PC_OUT[9]~output_o $end
$var wire 1 V! PC_OUT[8]~output_o $end
$var wire 1 W! PC_OUT[7]~output_o $end
$var wire 1 X! PC_OUT[6]~output_o $end
$var wire 1 Y! PC_OUT[5]~output_o $end
$var wire 1 Z! PC_OUT[4]~output_o $end
$var wire 1 [! PC_OUT[3]~output_o $end
$var wire 1 \! PC_OUT[2]~output_o $end
$var wire 1 ]! PC_OUT[1]~output_o $end
$var wire 1 ^! PC_OUT[0]~output_o $end
$var wire 1 _! FETCH~output_o $end
$var wire 1 `! EXEC2~output_o $end
$var wire 1 a! EXEC1~output_o $end
$var wire 1 b! accum[15]~output_o $end
$var wire 1 c! accum[14]~output_o $end
$var wire 1 d! accum[13]~output_o $end
$var wire 1 e! accum[12]~output_o $end
$var wire 1 f! accum[11]~output_o $end
$var wire 1 g! accum[10]~output_o $end
$var wire 1 h! accum[9]~output_o $end
$var wire 1 i! accum[8]~output_o $end
$var wire 1 j! accum[7]~output_o $end
$var wire 1 k! accum[6]~output_o $end
$var wire 1 l! accum[5]~output_o $end
$var wire 1 m! accum[4]~output_o $end
$var wire 1 n! accum[3]~output_o $end
$var wire 1 o! accum[2]~output_o $end
$var wire 1 p! accum[1]~output_o $end
$var wire 1 q! accum[0]~output_o $end
$var wire 1 r! MERGED[15]~output_o $end
$var wire 1 s! MERGED[14]~output_o $end
$var wire 1 t! MERGED[13]~output_o $end
$var wire 1 u! MERGED[12]~output_o $end
$var wire 1 v! MERGED[11]~output_o $end
$var wire 1 w! MERGED[10]~output_o $end
$var wire 1 x! MERGED[9]~output_o $end
$var wire 1 y! MERGED[8]~output_o $end
$var wire 1 z! MERGED[7]~output_o $end
$var wire 1 {! MERGED[6]~output_o $end
$var wire 1 |! MERGED[5]~output_o $end
$var wire 1 }! MERGED[4]~output_o $end
$var wire 1 ~! MERGED[3]~output_o $end
$var wire 1 !" MERGED[2]~output_o $end
$var wire 1 "" MERGED[1]~output_o $end
$var wire 1 #" MERGED[0]~output_o $end
$var wire 1 $" CLK~input_o $end
$var wire 1 %" inst3|FETCH~combout $end
$var wire 1 &" register3|stupid_dff~0_combout $end
$var wire 1 '" register3|stupid_dff~q $end
$var wire 1 (" inst3|EXEC1~combout $end
$var wire 1 )" MUX|$00000|auto_generated|l1_w11_n0_mux_dataout~0_combout $end
$var wire 1 *" inst4|auto_generated|counter_comb_bita0~sumout $end
$var wire 1 +" inst|SLOAD~0_combout $end
$var wire 1 ," inst|SLOAD~1_combout $end
$var wire 1 -" inst|SLOAD~3_combout $end
$var wire 1 ." inst|SLOAD~4_combout $end
$var wire 1 /" inst|SLOAD~2_combout $end
$var wire 1 0" inst4|auto_generated|_~0_combout $end
$var wire 1 1" inst4|auto_generated|_~1_combout $end
$var wire 1 2" inst4|auto_generated|counter_comb_bita0~COUT $end
$var wire 1 3" inst4|auto_generated|counter_comb_bita1~sumout $end
$var wire 1 4" inst4|auto_generated|counter_comb_bita1~COUT $end
$var wire 1 5" inst4|auto_generated|counter_comb_bita2~sumout $end
$var wire 1 6" inst4|auto_generated|counter_comb_bita2~COUT $end
$var wire 1 7" inst4|auto_generated|counter_comb_bita3~sumout $end
$var wire 1 8" inst4|auto_generated|counter_comb_bita3~COUT $end
$var wire 1 9" inst4|auto_generated|counter_comb_bita4~sumout $end
$var wire 1 :" inst4|auto_generated|counter_comb_bita4~COUT $end
$var wire 1 ;" inst4|auto_generated|counter_comb_bita5~sumout $end
$var wire 1 <" inst4|auto_generated|counter_comb_bita5~COUT $end
$var wire 1 =" inst4|auto_generated|counter_comb_bita6~sumout $end
$var wire 1 >" inst4|auto_generated|counter_comb_bita6~COUT $end
$var wire 1 ?" inst4|auto_generated|counter_comb_bita7~sumout $end
$var wire 1 @" inst4|auto_generated|counter_comb_bita7~COUT $end
$var wire 1 A" inst4|auto_generated|counter_comb_bita8~sumout $end
$var wire 1 B" inst4|auto_generated|counter_comb_bita8~COUT $end
$var wire 1 C" inst4|auto_generated|counter_comb_bita9~sumout $end
$var wire 1 D" inst4|auto_generated|counter_comb_bita9~COUT $end
$var wire 1 E" inst4|auto_generated|counter_comb_bita10~sumout $end
$var wire 1 F" inst4|auto_generated|counter_comb_bita10~COUT $end
$var wire 1 G" inst4|auto_generated|counter_comb_bita11~sumout $end
$var wire 1 H" MUX1|$00000|auto_generated|l1_w11_n0_mux_dataout~0_combout $end
$var wire 1 I" MUX|$00000|auto_generated|l1_w10_n0_mux_dataout~0_combout $end
$var wire 1 J" MUX1|$00000|auto_generated|l1_w10_n0_mux_dataout~0_combout $end
$var wire 1 K" MUX|$00000|auto_generated|l1_w9_n0_mux_dataout~0_combout $end
$var wire 1 L" MUX1|$00000|auto_generated|l1_w9_n0_mux_dataout~0_combout $end
$var wire 1 M" MUX|$00000|auto_generated|l1_w8_n0_mux_dataout~0_combout $end
$var wire 1 N" MUX1|$00000|auto_generated|l1_w8_n0_mux_dataout~0_combout $end
$var wire 1 O" MUX|$00000|auto_generated|l1_w7_n0_mux_dataout~0_combout $end
$var wire 1 P" MUX1|$00000|auto_generated|l1_w7_n0_mux_dataout~0_combout $end
$var wire 1 Q" MUX|$00000|auto_generated|l1_w6_n0_mux_dataout~0_combout $end
$var wire 1 R" MUX1|$00000|auto_generated|l1_w6_n0_mux_dataout~0_combout $end
$var wire 1 S" MUX|$00000|auto_generated|l1_w5_n0_mux_dataout~0_combout $end
$var wire 1 T" MUX1|$00000|auto_generated|l1_w5_n0_mux_dataout~0_combout $end
$var wire 1 U" MUX|$00000|auto_generated|l1_w4_n0_mux_dataout~0_combout $end
$var wire 1 V" MUX1|$00000|auto_generated|l1_w4_n0_mux_dataout~0_combout $end
$var wire 1 W" MUX|$00000|auto_generated|l1_w3_n0_mux_dataout~0_combout $end
$var wire 1 X" MUX1|$00000|auto_generated|l1_w3_n0_mux_dataout~0_combout $end
$var wire 1 Y" MUX|$00000|auto_generated|l1_w2_n0_mux_dataout~0_combout $end
$var wire 1 Z" MUX1|$00000|auto_generated|l1_w2_n0_mux_dataout~0_combout $end
$var wire 1 [" MUX|$00000|auto_generated|l1_w1_n0_mux_dataout~0_combout $end
$var wire 1 \" MUX1|$00000|auto_generated|l1_w1_n0_mux_dataout~0_combout $end
$var wire 1 ]" inst|add_sub~0_combout $end
$var wire 1 ^" ALU|auto_generated|add_sub_cella[0]~2_cout $end
$var wire 1 _" ALU|auto_generated|add_sub_cella[0]~COUT $end
$var wire 1 `" ALU|auto_generated|add_sub_cella[1]~COUT $end
$var wire 1 a" ALU|auto_generated|add_sub_cella[2]~COUT $end
$var wire 1 b" ALU|auto_generated|add_sub_cella[3]~COUT $end
$var wire 1 c" ALU|auto_generated|add_sub_cella[4]~COUT $end
$var wire 1 d" ALU|auto_generated|add_sub_cella[5]~COUT $end
$var wire 1 e" ALU|auto_generated|add_sub_cella[6]~COUT $end
$var wire 1 f" ALU|auto_generated|add_sub_cella[7]~COUT $end
$var wire 1 g" ALU|auto_generated|add_sub_cella[8]~COUT $end
$var wire 1 h" ALU|auto_generated|add_sub_cella[9]~COUT $end
$var wire 1 i" ALU|auto_generated|add_sub_cella[10]~COUT $end
$var wire 1 j" MUX3|$00000|auto_generated|l1_w11_n0_mux_dataout~0_combout $end
$var wire 1 k" inst3|EXEC2~0_combout $end
$var wire 1 l" inst|shift~0_combout $end
$var wire 1 m" inst|SLOAD_ACC~combout $end
$var wire 1 n" inst|enable_acc~0_combout $end
$var wire 1 o" MUX3|$00000|auto_generated|l1_w10_n0_mux_dataout~0_combout $end
$var wire 1 p" MUX3|$00000|auto_generated|l1_w9_n0_mux_dataout~0_combout $end
$var wire 1 q" MUX3|$00000|auto_generated|l1_w8_n0_mux_dataout~0_combout $end
$var wire 1 r" MUX3|$00000|auto_generated|l1_w7_n0_mux_dataout~0_combout $end
$var wire 1 s" MUX3|$00000|auto_generated|l1_w6_n0_mux_dataout~0_combout $end
$var wire 1 t" MUX3|$00000|auto_generated|l1_w5_n0_mux_dataout~0_combout $end
$var wire 1 u" MUX3|$00000|auto_generated|l1_w4_n0_mux_dataout~0_combout $end
$var wire 1 v" MUX3|$00000|auto_generated|l1_w3_n0_mux_dataout~0_combout $end
$var wire 1 w" MUX3|$00000|auto_generated|l1_w2_n0_mux_dataout~0_combout $end
$var wire 1 x" MUX3|$00000|auto_generated|l1_w1_n0_mux_dataout~0_combout $end
$var wire 1 y" MUX3|$00000|auto_generated|l1_w0_n0_mux_dataout~0_combout $end
$var wire 1 z" MUX|$00000|auto_generated|l1_w0_n0_mux_dataout~0_combout $end
$var wire 1 {" MUX1|$00000|auto_generated|l1_w0_n0_mux_dataout~0_combout $end
$var wire 1 |" inst|MUX3~0_combout $end
$var wire 1 }" ALU|auto_generated|add_sub_cella[11]~COUT $end
$var wire 1 ~" MUX3|$00000|auto_generated|l1_w12_n0_mux_dataout~0_combout $end
$var wire 1 !# MUX|$00000|auto_generated|l1_w12_n0_mux_dataout~0_combout $end
$var wire 1 "# inst|shift~1_combout $end
$var wire 1 ## ALU|auto_generated|add_sub_cella[12]~COUT $end
$var wire 1 $# ALU|auto_generated|add_sub_cella[13]~COUT $end
$var wire 1 %# ALU|auto_generated|add_sub_cella[14]~COUT $end
$var wire 1 &# MUX3|$00000|auto_generated|l1_w15_n0_mux_dataout~0_combout $end
$var wire 1 '# MUX3|$00000|auto_generated|l1_w14_n0_mux_dataout~0_combout $end
$var wire 1 (# MUX3|$00000|auto_generated|l1_w13_n0_mux_dataout~0_combout $end
$var wire 1 )# MUX|$00000|auto_generated|l1_w13_n0_mux_dataout~0_combout $end
$var wire 1 *# inst|WREN~0_combout $end
$var wire 1 +# inst|MUX1~1_combout $end
$var wire 1 ,# inst3|NS[1]~0_combout $end
$var wire 1 -# register3|inst1~q $end
$var wire 1 .# inst|MUX1~0_combout $end
$var wire 1 /# ALU|auto_generated|result [15] $end
$var wire 1 0# ALU|auto_generated|result [14] $end
$var wire 1 1# ALU|auto_generated|result [13] $end
$var wire 1 2# ALU|auto_generated|result [12] $end
$var wire 1 3# ALU|auto_generated|result [11] $end
$var wire 1 4# ALU|auto_generated|result [10] $end
$var wire 1 5# ALU|auto_generated|result [9] $end
$var wire 1 6# ALU|auto_generated|result [8] $end
$var wire 1 7# ALU|auto_generated|result [7] $end
$var wire 1 8# ALU|auto_generated|result [6] $end
$var wire 1 9# ALU|auto_generated|result [5] $end
$var wire 1 :# ALU|auto_generated|result [4] $end
$var wire 1 ;# ALU|auto_generated|result [3] $end
$var wire 1 <# ALU|auto_generated|result [2] $end
$var wire 1 =# ALU|auto_generated|result [1] $end
$var wire 1 ># ALU|auto_generated|result [0] $end
$var wire 1 ?# inst4|auto_generated|counter_reg_bit [11] $end
$var wire 1 @# inst4|auto_generated|counter_reg_bit [10] $end
$var wire 1 A# inst4|auto_generated|counter_reg_bit [9] $end
$var wire 1 B# inst4|auto_generated|counter_reg_bit [8] $end
$var wire 1 C# inst4|auto_generated|counter_reg_bit [7] $end
$var wire 1 D# inst4|auto_generated|counter_reg_bit [6] $end
$var wire 1 E# inst4|auto_generated|counter_reg_bit [5] $end
$var wire 1 F# inst4|auto_generated|counter_reg_bit [4] $end
$var wire 1 G# inst4|auto_generated|counter_reg_bit [3] $end
$var wire 1 H# inst4|auto_generated|counter_reg_bit [2] $end
$var wire 1 I# inst4|auto_generated|counter_reg_bit [1] $end
$var wire 1 J# inst4|auto_generated|counter_reg_bit [0] $end
$var wire 1 K# inst1|dffs [15] $end
$var wire 1 L# inst1|dffs [14] $end
$var wire 1 M# inst1|dffs [13] $end
$var wire 1 N# inst1|dffs [12] $end
$var wire 1 O# inst1|dffs [11] $end
$var wire 1 P# inst1|dffs [10] $end
$var wire 1 Q# inst1|dffs [9] $end
$var wire 1 R# inst1|dffs [8] $end
$var wire 1 S# inst1|dffs [7] $end
$var wire 1 T# inst1|dffs [6] $end
$var wire 1 U# inst1|dffs [5] $end
$var wire 1 V# inst1|dffs [4] $end
$var wire 1 W# inst1|dffs [3] $end
$var wire 1 X# inst1|dffs [2] $end
$var wire 1 Y# inst1|dffs [1] $end
$var wire 1 Z# inst1|dffs [0] $end
$var wire 1 [# ram|altsyncram_component|auto_generated|q_a [15] $end
$var wire 1 \# ram|altsyncram_component|auto_generated|q_a [14] $end
$var wire 1 ]# ram|altsyncram_component|auto_generated|q_a [13] $end
$var wire 1 ^# ram|altsyncram_component|auto_generated|q_a [12] $end
$var wire 1 _# ram|altsyncram_component|auto_generated|q_a [11] $end
$var wire 1 `# ram|altsyncram_component|auto_generated|q_a [10] $end
$var wire 1 a# ram|altsyncram_component|auto_generated|q_a [9] $end
$var wire 1 b# ram|altsyncram_component|auto_generated|q_a [8] $end
$var wire 1 c# ram|altsyncram_component|auto_generated|q_a [7] $end
$var wire 1 d# ram|altsyncram_component|auto_generated|q_a [6] $end
$var wire 1 e# ram|altsyncram_component|auto_generated|q_a [5] $end
$var wire 1 f# ram|altsyncram_component|auto_generated|q_a [4] $end
$var wire 1 g# ram|altsyncram_component|auto_generated|q_a [3] $end
$var wire 1 h# ram|altsyncram_component|auto_generated|q_a [2] $end
$var wire 1 i# ram|altsyncram_component|auto_generated|q_a [1] $end
$var wire 1 j# ram|altsyncram_component|auto_generated|q_a [0] $end
$var wire 1 k# IR|dffs [15] $end
$var wire 1 l# IR|dffs [14] $end
$var wire 1 m# IR|dffs [13] $end
$var wire 1 n# IR|dffs [12] $end
$var wire 1 o# IR|dffs [11] $end
$var wire 1 p# IR|dffs [10] $end
$var wire 1 q# IR|dffs [9] $end
$var wire 1 r# IR|dffs [8] $end
$var wire 1 s# IR|dffs [7] $end
$var wire 1 t# IR|dffs [6] $end
$var wire 1 u# IR|dffs [5] $end
$var wire 1 v# IR|dffs [4] $end
$var wire 1 w# IR|dffs [3] $end
$var wire 1 x# IR|dffs [2] $end
$var wire 1 y# IR|dffs [1] $end
$var wire 1 z# IR|dffs [0] $end
$var wire 1 {# ram|altsyncram_component|auto_generated|ram_block1a15_PORTADATAOUT_bus [0] $end
$var wire 1 |# ram|altsyncram_component|auto_generated|ram_block1a14_PORTADATAOUT_bus [0] $end
$var wire 1 }# ram|altsyncram_component|auto_generated|ram_block1a13_PORTADATAOUT_bus [0] $end
$var wire 1 ~# ram|altsyncram_component|auto_generated|ram_block1a12_PORTADATAOUT_bus [0] $end
$var wire 1 !$ ram|altsyncram_component|auto_generated|ram_block1a11_PORTADATAOUT_bus [0] $end
$var wire 1 "$ ram|altsyncram_component|auto_generated|ram_block1a10_PORTADATAOUT_bus [0] $end
$var wire 1 #$ ram|altsyncram_component|auto_generated|ram_block1a9_PORTADATAOUT_bus [0] $end
$var wire 1 $$ ram|altsyncram_component|auto_generated|ram_block1a8_PORTADATAOUT_bus [0] $end
$var wire 1 %$ ram|altsyncram_component|auto_generated|ram_block1a7_PORTADATAOUT_bus [0] $end
$var wire 1 &$ ram|altsyncram_component|auto_generated|ram_block1a6_PORTADATAOUT_bus [0] $end
$var wire 1 '$ ram|altsyncram_component|auto_generated|ram_block1a5_PORTADATAOUT_bus [0] $end
$var wire 1 ($ ram|altsyncram_component|auto_generated|ram_block1a4_PORTADATAOUT_bus [0] $end
$var wire 1 )$ ram|altsyncram_component|auto_generated|ram_block1a3_PORTADATAOUT_bus [0] $end
$var wire 1 *$ ram|altsyncram_component|auto_generated|ram_block1a2_PORTADATAOUT_bus [0] $end
$var wire 1 +$ ram|altsyncram_component|auto_generated|ram_block1a1_PORTADATAOUT_bus [0] $end
$var wire 1 ,$ ram|altsyncram_component|auto_generated|ram_block1a0_PORTADATAOUT_bus [0] $end
$upscope $end
$upscope $end
$enddefinitions $end
#0
$dumpvars
0!
0E"
0F"
0G"
0H"
0I"
0J"
0K"
0L"
0M"
0N"
0O"
0P"
0Q"
0R"
0S"
0T"
0U"
0V"
0W"
0X"
0Y"
0Z"
0["
0\"
0]"
1^"
1_"
1`"
1a"
1b"
1c"
1d"
1e"
1f"
1g"
1h"
1i"
0j"
0k"
0l"
0m"
0n"
0o"
0p"
0q"
0r"
0s"
0t"
0u"
0v"
0w"
0x"
0y"
0z"
0{"
1|"
1}"
0~"
0!#
0"#
1##
1$#
1%#
0&#
0'#
0(#
0)#
0*#
1+#
0,#
0-#
0.#
0>#
0=#
0<#
0;#
0:#
09#
08#
07#
06#
05#
04#
03#
02#
01#
00#
0/#
0J#
0I#
0H#
0G#
0F#
0E#
0D#
0C#
0B#
0A#
0@#
0?#
0Z#
0Y#
0X#
0W#
0V#
0U#
0T#
0S#
0R#
0Q#
0P#
0O#
0N#
0M#
0L#
0K#
0j#
0i#
0h#
0g#
0f#
0e#
0d#
0c#
0b#
0a#
0`#
0_#
0^#
0]#
0\#
0[#
0z#
0y#
0x#
0w#
0v#
0u#
0t#
0s#
0r#
0q#
0p#
0o#
0n#
0m#
0l#
0k#
0{#
0|#
0}#
0~#
0!$
0"$
0#$
0$$
0%$
0&$
0'$
0($
0)$
0*$
0+$
0,$
0~!
0!"
0""
0#"
0$"
0%"
1&"
0'"
0("
0)"
1*"
1+"
1,"
1-"
0."
0/"
00"
01"
02"
03"
04"
05"
06"
07"
08"
09"
0:"
0;"
0<"
0="
0>"
0?"
0@"
0A"
0B"
0C"
0D"
01
00
0/
0.
0-
0,
0+
0*
0)
0(
0'
0&
0%
0$
0#
0"
0A
0@
0?
0>
0=
0<
0;
0:
09
08
07
06
05
04
03
02
0B
0C
1D
0T
0S
0R
0Q
0P
0O
0N
0M
0L
0K
0J
0I
0H
0G
0F
0E
0U
0a
0`
0_
0^
0]
0\
0[
0Z
0Y
0X
0W
0V
0m
0l
0k
0j
0i
0h
0g
0f
0e
0d
0c
0b
0}
0|
0{
0z
0y
0x
0w
0v
0u
0t
0s
0r
0q
0p
0o
0n
0~
1!!
x"!
1#!
1$!
1%!
0&!
0'!
0(!
0)!
0*!
0+!
0,!
0-!
0.!
0/!
00!
01!
02!
03!
04!
05!
06!
07!
08!
09!
0:!
0;!
0<!
0=!
0>!
0?!
0@!
0A!
0B!
0C!
0D!
0E!
0F!
0G!
0H!
0I!
0J!
0K!
0L!
0M!
0N!
0O!
0P!
0Q!
0R!
0S!
0T!
0U!
0V!
0W!
0X!
0Y!
0Z!
0[!
0\!
0]!
0^!
1_!
0`!
0a!
0b!
0c!
0d!
0e!
0f!
0g!
0h!
0i!
0j!
0k!
0l!
0m!
0n!
0o!
0p!
0q!
0r!
0s!
0t!
0u!
0v!
0w!
0x!
0y!
0z!
0{!
0|!
0}!
$end
#10000
1!
1$"
1'"
1%"
1.#
1("
1a!
1&!
0_!
0D
1U
1B
0&"
1,#
#10001
1)$
1~#
1}#
1g#
1^#
1]#
19!
1:!
1C!
0$#
11#
0##
12#
0b"
1;#
1z
1q
1p
1v"
1~!
0%#
10#
01#
0c"
1:#
1Q
1/#
0d"
19#
0e"
18#
0f"
17#
0g"
16#
0h"
15#
0i"
14#
0}"
13#
02#
#15000
0!
0$"
#20000
1!
1$"
1-#
1m#
1n#
1w#
0'"
1)#
1!#
1W"
10"
1k"
0("
0a!
1`!
11"
0|"
1n"
1m"
1C
0B
1X"
0,#
1O!
1j
1'#
1&#
1u"
1t"
1s"
1r"
1q"
1p"
1o"
1j"
1v!
1w!
1x!
1y!
1z!
1{!
1|!
1}!
1r!
1s!
1F
1E
1P
1O
1N
1M
1L
1K
1J
1I
#25000
0!
0$"
#30000
1!
1$"
0-#
1L#
1K#
1W#
1V#
1U#
1T#
1S#
1R#
1Q#
1P#
1O#
1J#
1^!
1+!
1f!
1,!
1g!
1-!
1h!
1.!
1i!
1/!
1j!
10!
1k!
11!
1l!
12!
1m!
13!
1n!
1'!
1b!
1(!
1c!
00"
0%"
12"
1}"
03#
1i"
04#
0+"
1h"
05#
1g"
06#
1f"
07#
1e"
08#
1d"
09#
0-"
1c"
0:#
0,"
1b"
0;#
0/#
1%#
00#
13
1#
12
1"
1>
1.
1=
1-
1<
1,
1;
1+
1:
1*
19
1)
18
1(
17
1'
16
1&
1a
0.#
0k"
0*"
0`!
0&!
1_!
12#
13#
14#
15#
16#
17#
18#
19#
1:#
1/#
01"
0n"
0m"
1D
0U
0C
13"
0'#
0&#
0v"
0u"
0t"
0s"
0r"
0q"
0p"
0o"
0j"
1&"
1{"
0X"
0O!
1R!
0v!
0w!
0x!
0y!
0z!
0{!
0|!
0}!
0~!
0r!
0s!
0F
0E
0Q
0P
0O
0N
0M
0L
0K
0J
0I
1m
0j
1&#
1u"
1t"
1s"
1r"
1q"
1p"
1o"
1j"
1~"
1u!
1v!
1w!
1x!
1y!
1z!
1{!
1|!
1}!
1r!
1E
1P
1O
1N
1M
1L
1K
1J
1I
1H
#30001
1#$
1($
0)$
1,$
0}#
1a#
1f#
0g#
1j#
0]#
09!
1F!
0C!
1B!
1=!
0)#
11#
1z"
0_"
1>#
1;#
0W"
0:#
1U"
05#
1K"
1t
1y
0z
1}
0p
0`"
1=#
0p"
0u"
1v"
1y"
1(#
1t!
1#"
1~!
0}!
0x!
0a"
1<#
0K
0P
1Q
1T
1G
1x"
1""
0;#
1S
1w"
1!"
1R
0v"
0~!
0Q
#35000
0!
0$"
#40000
1!
1$"
0m#
1z#
0w#
1v#
1q#
1'"
10"
1%"
1.#
1("
1a!
1&!
0_!
11"
1*#
0D
1U
1B
0&"
1V"
1L"
1I!
1N!
1i
1d
#40001
0#$
0($
0,$
1|#
1}#
0a#
0f#
0j#
1\#
1]#
19!
18!
0F!
0B!
0=!
01#
0%#
10#
1_"
0>#
1:#
15#
0t
0y
0}
1o
1p
0/#
1`"
0=#
1p"
1u"
0y"
1'#
0(#
0t!
1s!
0#"
1}!
1x!
1a"
0<#
1K
1P
0T
1F
0G
0x"
0&#
0r!
0""
1;#
0S
0E
0w"
0!"
0R
1v"
1~!
1Q
#45000
0!
0$"
#50000
1!
1$"
1m#
1l#
0z#
0v#
0q#
0'"
1I#
0J#
0^!
1]!
0+#
1)#
0z"
0U"
0K"
00"
0%"
01"
1."
02"
14"
1`
0a
0.#
0("
1*"
03"
0a!
0&!
1_!
04"
0*#
0."
1D
0U
0B
13"
15"
1&"
0L"
0V"
0{"
1\"
1Q!
0R!
0N!
0I!
0d
0i
0m
1l
05"
